{
    "version": 2,
    "name": "portfolio",
    "builds": [
        {
            "src": "*",
            "use": "@now/static"
        },
        {
            "src": ".next/*",
            "use": "@now/static"
        },
        {
            "src": "./pages/*",
            "use": "@now/static"
        },
        {
            "src": "./styles/*",
            "use": "@now/static"
        },
        {
            "src": "./static/*",
            "use": "@now/static"
        }
    ]
}